…
## tidybayes

### Spread

``` r
fit%>%
  tidybayes::spread_draws(alpha,sigma)
#> # A tibble: 1,000 x 5
#>    .chain .iteration .draw  alpha sigma
#>     <int>      <int> <int>  <dbl> <dbl>
#>  1      1          1     1 0.427  0.871
#>  2      1          2     2 0.611  1.28 
#>  3      1          3     3 0.123  1.29 
#>  4      1          4     4 0.287  1.27 
#>  5      1          5     5 0.309  0.982
#>  6      1          6     6 0.748  1.31 
#>  7      1          7     7 0.0722 0.885
#>  8      1          8     8 1.32   1.40 
#>  9      1          9     9 0.107  0.806
#> 10      1         10    10 0.0542 0.877
#> # … with 990 more rows
…
fit%>%
  stan_sample_n(2)%>%
  tidybayes::spread_draws(z[i,j])
#> # A tibble: 48 x 6
#> # Groups:   i, j [6]
#>    .chain .iteration .draw     i     j       z
#>     <int>      <int> <int> <int> <int>   <dbl>
#>  1      1          1     1     1     1  0.376 
#>  2      1          1     1     1     2  0.0282
#>  3      1          1     1     2     1 -1.11  
#>  4      1          1     1     2     2  1.91  
#>  5      1          1     1     3     1 -0.0541
#>  6      1          1     1     3     2  1.14  
#>  7      1          2     2     1     1 -0.0632
#>  8      1          2     2     1     2  0.988 
#>  9      1          2     2     2     1  0.564 
#> 10      1          2     2     2     2 -0.291 
#> # … with 38 more rows
```

### Gather

``` r
fit%>%
  tidybayes::gather_draws(alpha,sigma)
#> # A tibble: 2,000 x 5
#> # Groups:   .variable [2]
#>    .chain .iteration .draw .variable .value
#>     <int>      <int> <int> <chr>      <dbl>
#>  1      1          1     1 alpha     0.427 
#>  2      1          2     2 alpha     0.611 
#>  3      1          3     3 alpha     0.123 
#>  4      1          4     4 alpha     0.287 
#>  5      1          5     5 alpha     0.309 
#>  6      1          6     6 alpha     0.748 
#>  7      1          7     7 alpha     0.0722
#>  8      1          8     8 alpha     1.32  
#>  9      1          9     9 alpha     0.107 
#> 10      1         10    10 alpha     0.0542
#> # … with 1,990 more rows
…
fit%>%
  stan_sample_n(2)%>%
  tidybayes::gather_draws(z[i,j])
#> # A tibble: 48 x 7
#> # Groups:   i, j, .variable [6]
#>    .chain .iteration .draw     i     j .variable  .value
#>     <int>      <int> <int> <int> <int> <chr>       <dbl>
#>  1      1          1     1     1     1 z         -2.35  
#>  2      1          1     1     1     2 z          0.474 
#>  3      1          1     1     2     1 z          1.11  
#>  4      1          1     1     2     2 z          0.729 
#>  5      1          1     1     3     1 z         -0.0937
#>  6      1          1     1     3     2 z          1.95  
#>  7      1          2     2     1     1 z         -0.111 
#>  8      1          2     2     1     2 z          1.13  
#>  9      1          2     2     2     1 z          0.0322
#> 10      1          2     2     2     2 z         -1.40  
#> # … with 38 more rows
```
