…
```

</details>
<br>

We use the [butcher](https://tidymodels.github.io/butcher/) package to evaluate the size of each element.


```r

rats%>%
  attributes()%>%
  butcher::weigh(units = 'MB')
#> # A tibble: 404 x 2
#>    object                 size
#>    <chr>                 <dbl>
#>  1 stanmodel            5.86  
#>  2 .MISC                0.0449
#>  3 sim.samples.alpha[1] 0.0160
#>  4 sim.samples.alpha[2] 0.0160
#>  5 sim.samples.alpha[3] 0.0160
#>  6 sim.samples.alpha[4] 0.0160
#>  7 sim.samples.alpha[5] 0.0160
#>  8 sim.samples.alpha[6] 0.0160
#>  9 sim.samples.alpha[7] 0.0160
#> 10 sim.samples.alpha[8] 0.0160
#> # … with 394 more rows
```
…
