Tidylike Verbs for Stan • shredder
…
tidybayes

Spread

fit%>%
  tidybayes::spread_draws(alpha,sigma)
#> # A tibble: 1,000 x 5
#>    .chain .iteration .draw alpha sigma
#>     <int>      <int> <int> <dbl> <dbl>
#>  1      1          1     1 0.246 1.10 
#>  2      1          2     2 0.269 1.24 
#>  3      1          3     3 0.410 1.16 
#>  4      1          4     4 0.335 1.08 
#>  5      1          5     5 0.120 1.03 
#>  6      1          6     6 0.782 0.872
#>  7      1          7     7 0.258 1.36 
#>  8      1          8     8 0.185 0.969
#>  9      1          9     9 0.307 1.52 
#> 10      1         10    10 0.679 1.21 
#> # … with 990 more rows
…
fit%>%
  stan_sample_n(2)%>%
  tidybayes::spread_draws(z[i,j])
#> # A tibble: 48 x 6
#> # Groups:   i, j [6]
#>    .chain .iteration .draw     i     j       z
#>     <int>      <int> <int> <int> <int>   <dbl>
#>  1      1          1     1     1     1 -0.723 
#>  2      1          1     1     1     2  0.0508
#>  3      1          1     1     2     1  0.490 
#>  4      1          1     1     2     2  0.271 
#>  5      1          1     1     3     1 -0.638 
#>  6      1          1     1     3     2  0.619 
#>  7      1          2     2     1     1 -0.189 
#>  8      1          2     2     1     2 -1.03  
#>  9      1          2     2     2     1 -1.89  
#> 10      1          2     2     2     2 -0.894 
#> # … with 38 more rows

Gather

fit%>%
  tidybayes::gather_draws(alpha,sigma)
#> # A tibble: 2,000 x 5
#> # Groups:   .variable [2]
#>    .chain .iteration .draw .variable .value
#>     <int>      <int> <int> <chr>      <dbl>
#>  1      1          1     1 alpha      0.246
#>  2      1          2     2 alpha      0.269
#>  3      1          3     3 alpha      0.410
#>  4      1          4     4 alpha      0.335
#>  5      1          5     5 alpha      0.120
#>  6      1          6     6 alpha      0.782
#>  7      1          7     7 alpha      0.258
#>  8      1          8     8 alpha      0.185
#>  9      1          9     9 alpha      0.307
#> 10      1         10    10 alpha      0.679
#> # … with 1,990 more rows
…
fit%>%
  stan_sample_n(2)%>%
  tidybayes::gather_draws(z[i,j])
#> # A tibble: 48 x 7
#> # Groups:   i, j, .variable [6]
#>    .chain .iteration .draw     i     j .variable .value
#>     <int>      <int> <int> <int> <int> <chr>      <dbl>
#>  1      1          1     1     1     1 z         -0.553
#>  2      1          1     1     1     2 z         -1.19 
#>  3      1          1     1     2     1 z         -1.37 
#>  4      1          1     1     2     2 z          0.685
#>  5      1          1     1     3     1 z          1.18 
#>  6      1          1     1     3     2 z         -0.825
#>  7      1          2     2     1     1 z         -0.320
#>  8      1          2     2     1     2 z         -0.799
#>  9      1          2     2     2     1 z          1.11 
#> 10      1          2     2     2     2 z          1.00 
#> # … with 38 more rows
…
