Removing Internal Elements • shredder
…
Samples were drawn using NUTS(diag_e) at Thu Jul 30 15:20:13 2020.
For each parameter, n_eff is a crude measure of effective sample size,
and Rhat is the potential scale reduction factor on split chains (at 
convergence, Rhat=1).

We use the butcher package to evaluate the size of each element.

rats%>%
  attributes()%>%
  butcher::weigh(units = 'MB')
#> # A tibble: 404 x 2
#>    object                 size
#>    <chr>                 <dbl>
#>  1 stanmodel            5.81  
#>  2 .MISC                3.71  
#>  3 sim.samples.alpha[1] 0.0160
#>  4 sim.samples.alpha[2] 0.0160
#>  5 sim.samples.alpha[3] 0.0160
#>  6 sim.samples.alpha[4] 0.0160
#>  7 sim.samples.alpha[5] 0.0160
#>  8 sim.samples.alpha[6] 0.0160
#>  9 sim.samples.alpha[7] 0.0160
#> 10 sim.samples.alpha[8] 0.0160
#> # … with 394 more rows
…
